01-explore-tweets
…
library(tidyverse)
library(tidytext)
library(drlib)
library(firatheme)
library(scales)
library(ggpubr)
library(cowplot)

data("stop_words")

tweets <- read_csv('tweet_results.csv')
tweets

## # A tibble: 49,735 x 2
##    language tweet                                                          
##    <chr>    <chr>                                                          
##  1 R        "b'RT @LearnRinaDay: Debugging in R: How to Easily and Efficie~
##  2 R        "b'#30DayMapChallenge #\\xe2\\x83\\xa31\\xe2\\x83\\xa39\\xe2\\~
##  3 R        "b'RT @gp_pulipaka: Data Science on Steroids with #Kubeflow. #~
##  4 R        b'RT @CRANberriesFeed: CRAN updates: corpustools enveomics.R O~
##  5 R        "b'RT @leonawicz: I found the cause of this grave issue that w~
##  6 R        "b'RT @tomkXY: @dr_piv I think @thecarpentries is great for al~
##  7 R        "b'RT @IsabellaGhement: What I really wanted is a prediction i~
##  8 R        "b'RT @IsabellaGhement: I am trying to use the Gls() function ~
##  9 R        b'RT @Rbloggers: Hangman game with R  {https://t.co/178DPBsU4t~
## 10 R        "b'RT @daniellequinn88: Register now for the next course, happ~
## # ... with 49,725 more rows
…
